{
    "KPlugin": {
        "Description": "Provides shortcuts for common session actions",
        "Description[bg]": "Осигурява клавишни комбинации за общи действия в сесията",
        "Description[ca@valencia]": "Proporciona dreceres per a accions habituals de sessió",
        "Description[ca]": "Proporciona dreceres per a accions habituals de sessió",
        "Description[cs]": "Poskytuje zkratky pro běžné činnosti sezení",
        "Description[eo]": "Provizas ŝparvojojn por oftaj seancaj agoj",
        "Description[es]": "Proporciona atajos de teclado para acciones comunes de sesiones",
        "Description[fr]": "Fournit des raccourcis pour les actions classiques de session",
        "Description[gl]": "Fornece atallos para accións comúns de sesión.",
        "Description[he]": "מספק קיצורים לפעולות הפעלה נפוצות",
        "Description[ia]": "Il forni vias breve per actione de session commun",
        "Description[it]": "Fornisce scorciatoie per azioni comuni per le sessioni",
        "Description[ka]": "მოგაწოდებთ მალსახმობების ზოგადი სესიის ქმედებებისთვის",
        "Description[nl]": "Levert sneltoetsen voor gemeenschappelijke acties in sessie",
        "Description[pl]": "Dostarcza skrótów dla powszechnych działań posiedzenia",
        "Description[sk]": "Poskytuje skratky pre časté akcie sedenia",
        "Description[sl]": "Nudi bližnjice za običajne dejavnosti seje",
        "Description[tr]": "Temel oturum eylemleri için kısayollar sağlar",
        "Description[uk]": "Надає клавіатурні скорочення для типових дій у сеансі",
        "Description[x-test]": "xxProvides shortcuts for common session actionsxx",
        "Description[zh_CN]": "提供常见会话操作的快捷方式",
        "Description[zh_TW]": "提供快捷鍵給一般工作階段動作",
        "Name": "Session Shortcuts",
        "Name[bg]": "Клавишни комбинации на сесията",
        "Name[ca@valencia]": "Dreceres de sessió",
        "Name[ca]": "Dreceres de sessió",
        "Name[cs]": "Zkratky sezení",
        "Name[eo]": "Seancaj Ŝparvojoj",
        "Name[es]": "Atajos de teclado de sesiones",
        "Name[fr]": "Raccourcis de session",
        "Name[gl]": "Atallos de sesión",
        "Name[he]": "קיצורי דרך להפעלה",
        "Name[ia]": "Vias breve  de Session",
        "Name[it]": "Scorciatoie di sessione",
        "Name[ka]": "სესიის მალსახმობები",
        "Name[nl]": "Sneltoetsen van sessie",
        "Name[pl]": "Skróty posiedzenia",
        "Name[sk]": "Skratky sedenia",
        "Name[sl]": "Bližnjice seje",
        "Name[tr]": "Oturum Kısayolları",
        "Name[uk]": "Скорочення сеансу",
        "Name[x-test]": "xxSession Shortcutsxx",
        "Name[zh_CN]": "会话快捷键",
        "Name[zh_TW]": "工作階段快捷鍵"
    },
    "OnlyShowIn": "KDE",
    "X-KDE-Kded-autoload": true,
    "X-KDE-Kded-load-on-demand": false
}
