{
    "KPackageStructure": "Plasma/Applet",
    "KPlugin": {
        "Authors": [
            {
                "Email": "sebas@kde.org",
                "Name": "Sebastian Kügler",
                "Name[ar]": "Sebastian Kügler",
                "Name[ast]": "Sebastian Kügler",
                "Name[az]": "Sebastian Kügler",
                "Name[be]": "Sebastian Kügler",
                "Name[bg]": "Sebastian Kügler",
                "Name[ca@valencia]": "Sebastian Kügler",
                "Name[ca]": "Sebastian Kügler",
                "Name[cs]": "Sebastian Kügler",
                "Name[da]": "Sebastian Kügler",
                "Name[de]": "Sebastian Kügler",
                "Name[en_GB]": "Sebastian Kügler",
                "Name[eo]": "Sebastian Kügler",
                "Name[es]": "Sebastian Kügler",
                "Name[et]": "Sebastian Kügler",
                "Name[eu]": "Sebastian Kügler",
                "Name[fi]": "Sebastian Kügler",
                "Name[fr]": "Sebastian Kügler",
                "Name[gl]": "Sebastian Kügler",
                "Name[he]": "סבסטיאן קיגלר",
                "Name[hi]": "सेबस्टियन कुगलर",
                "Name[hu]": "Sebastian Kügler",
                "Name[ia]": "Sebastian Kügler",
                "Name[id]": "Sebastian Kügler",
                "Name[is]": "Sebastian Kügler",
                "Name[it]": "Sebastian Kügler",
                "Name[ja]": "Sebastian Kügler",
                "Name[ka]": "სებასტიან კუგლერი",
                "Name[ko]": "Sebastian Kügler",
                "Name[lt]": "Sebastian Kügler",
                "Name[nl]": "Sebastian Kügler",
                "Name[nn]": "Sebastian Kügler",
                "Name[pa]": "Sebastian Kügler",
                "Name[pl]": "Sebastian Kügler",
                "Name[pt]": "Sebastian Kügler",
                "Name[pt_BR]": "Sebastian Kügler",
                "Name[ro]": "Sebastian Kügler",
                "Name[ru]": "Sebastian Kügler",
                "Name[sa]": "सेबास्टियन् कुग्लर्",
                "Name[sk]": "Sebastian Kügler",
                "Name[sl]": "Sebastian Kügler",
                "Name[sv]": "Sebastian Kügler",
                "Name[ta]": "ஸெபாஸ்டியன் கூக்லர்",
                "Name[tr]": "Sebastian Kügler",
                "Name[uk]": "Sebastian Kügler",
                "Name[vi]": "Sebastian Kügler",
                "Name[x-test]": "xxSebastian Küglerxx",
                "Name[zh_CN]": "Sebastian Kügler",
                "Name[zh_TW]": "Sebastian Kügler"
            },
            {
                "Email": "kde@privat.broulik.de",
                "Name": "Kai Uwe Broulik",
                "Name[ar]": "Kai Uwe Broulik",
                "Name[ast]": "Kai Uwe Broulik",
                "Name[az]": "Kai Uwe Broulik",
                "Name[be]": "Kai Uwe Broulik",
                "Name[bg]": "Kai Uwe Broulik",
                "Name[ca@valencia]": "Kai Uwe Broulik",
                "Name[ca]": "Kai Uwe Broulik",
                "Name[cs]": "Kai Uwe Broulik",
                "Name[da]": "Kai Uwe Broulik",
                "Name[de]": "Kai Uwe Broulik",
                "Name[en_GB]": "Kai Uwe Broulik",
                "Name[eo]": "Kai Uwe Broulik",
                "Name[es]": "Kai Uwe Broulik",
                "Name[et]": "Kai Uwe Broulik",
                "Name[eu]": "Kai Uwe Broulik",
                "Name[fi]": "Kai Uwe Broulik",
                "Name[fr]": "Kai Uwe Broulik",
                "Name[gl]": "Kai Uwe Broulik",
                "Name[he]": "קאי אווה ברוליק",
                "Name[hi]": "काई उवे ब्रोलिक",
                "Name[hu]": "Kai Uwe Broulik",
                "Name[ia]": "Kai Uwe Broulik",
                "Name[id]": "Kai Uwe Broulik",
                "Name[is]": "Kai Uwe Broulik",
                "Name[it]": "Kai Uwe Broulik",
                "Name[ja]": "Kai Uwe Broulik",
                "Name[ka]": "კაი უვე ბროულიკი",
                "Name[ko]": "Kai Uwe Broulik",
                "Name[lt]": "Kai Uwe Broulik",
                "Name[nl]": "Kai Uwe Broulik",
                "Name[nn]": "Kai Uwe Broulik",
                "Name[pl]": "Kai Uwe Broulik",
                "Name[pt]": "Kai Uwe Broulik",
                "Name[pt_BR]": "Kai Uwe Broulik",
                "Name[ro]": "Kai Uwe Broulik",
                "Name[ru]": "Kai Uwe Broulik",
                "Name[sa]": "कै उवे ब्रौलिक्",
                "Name[sk]": "Kai Uwe Broulik",
                "Name[sl]": "Kai Uwe Broulik",
                "Name[sv]": "Kai Uwe Broulik",
                "Name[ta]": "காய் ஊவே புரோலிக்",
                "Name[tr]": "Kai Uwe Broulik",
                "Name[uk]": "Kai Uwe Broulik",
                "Name[vi]": "Kai Uwe Broulik",
                "Name[x-test]": "xxKai Uwe Broulikxx",
                "Name[zh_CN]": "Kai Uwe Broulik",
                "Name[zh_TW]": "Kai Uwe Broulik"
            }
        ],
        "BugReportUrl": "https://bugs.kde.org/enter_bug.cgi?product=plasmashell&component=Battery%20Monitor",
        "Category": "System Information",
        "Description": "Control power management settings and see the power status of your battery",
        "Description[bg]": "Управление на настройките за управление на захранването и преглед на състоянието на захранването на батерията",
        "Description[ca@valencia]": "Controla la configuració de la gestió de l'energia i consulta l'estat d'energia de la bateria",
        "Description[ca]": "Controla la configuració de la gestió d'energia i consulta l'estat d'energia de la bateria",
        "Description[eo]": "Regi energiadministrajn agordojn kaj vidi la energiostaton de via baterio",
        "Description[es]": "Controlar los ajustes de gestión de energía y ver el estado de energía de la batería",
        "Description[fr]": "Veuillez contrôler la configuration de la gestion de l'énergie et voir l'état de charge de votre batterie",
        "Description[gl]": "Controlar a configuración da xestión de enerxía e ver a carga da batería.",
        "Description[he]": "שליטה בהגדרות ניהול צריכת חשמל וצפייה במצב החשמלי של הסוללה שלך",
        "Description[ia]": "Controla preferentias de gestion de energia e vide le stato de tu batteria",
        "Description[it]": "Controlla le impostazioni di gestione dell'alimentazione e visualizza lo stato di alimentazione della batteria",
        "Description[ka]": "აკონტროლეთ კვების მართვის პარამეტრები და იხილეთ თქვენი ელემენტის კვების სტატუსი",
        "Description[nl]": "Instellingen voor besturing van energiebeheer en zie de energiestatus van uw batterij",
        "Description[sl]": "Nadzorujte nastavitve upravljanja porabe energije in si oglejte stanje porabe energije vaše baterije",
        "Description[tr]": "Güç yönetimi ayarlarını denetleyin ve pilin doluluk durumunu görün",
        "Description[uk]": "Керує параметрами керування живленням та переглядом стану заряду акумулятора",
        "Description[x-test]": "xxControl power management settings and see the power status of your batteryxx",
        "Description[zh_CN]": "控制电源管理设置和查看电池的电量状态",
        "EnabledByDefault": true,
        "FormFactors": [
            "desktop"
        ],
        "Icon": "battery-full",
        "Id": "org.kde.plasma.battery",
        "License": "GPL-2.0+",
        "Name": "Power and Battery",
        "Name[bg]": "Захранване и батерия",
        "Name[ca@valencia]": "Energia i bateria",
        "Name[ca]": "Energia i bateria",
        "Name[eo]": "Energio kaj Baterio",
        "Name[es]": "Energía y batería",
        "Name[fr]": "Énergie et batterie",
        "Name[gl]": "Enerxía e batería",
        "Name[he]": "צריכת חשמל וסוללה",
        "Name[ia]": "Energia (Power) e Batteria",
        "Name[it]": "Alimentazione e batteria",
        "Name[ka]": "ენერგია და ელემენტი",
        "Name[nl]": "Energie en batterij",
        "Name[sl]": "Moč in baterija",
        "Name[tr]": "Güç ve Pil",
        "Name[uk]": "Живлення і акумулятор",
        "Name[x-test]": "xxPower and Batteryxx",
        "Name[zh_CN]": "电量和电池"
    },
    "Keywords": "Power Management;Battery;System;Energy;",
    "Keywords[ar]": "إدارة الطاقة;بطارية;نظام;طاقة;",
    "Keywords[ast]": "Xestión enerxética;Xestión d'enerxía;Batería;Sistema;Enerxía;",
    "Keywords[az]": "El. Enerjisi İdarəsi;Batareya;Enerji",
    "Keywords[bs]": "Upravljanje napajenjem;Baterija;Sistem;Energija;",
    "Keywords[ca@valencia]": "Sistema de gestió d'energia;Bateria;Sistema;Energia;",
    "Keywords[ca]": "Sistema de gestió d'energia;Bateria;Sistema;Energia;",
    "Keywords[cs]": "Správa napájení;Baterie;Systém;Energie;",
    "Keywords[da]": "Strømstyring;battery;system;energi;",
    "Keywords[de]": "Energieverwaltungssystem;Akku;System;Energie;",
    "Keywords[el]": "Διαχείριση ισχύος;Μπαταρία;Σύστημα;Ενέργεια;",
    "Keywords[en_GB]": "Power Management;Battery;System;Energy;",
    "Keywords[es]": "Gestión de energía;Batería;Sistema;Energía;",
    "Keywords[et]": "Toitehaldus;aku;süsteem;energia;",
    "Keywords[eu]": "energia kudeaketa;bateria;sistema;energia;",
    "Keywords[fi]": "Virranhallinta;Akku;Järjestelmä;Virransäästö;",
    "Keywords[fr]": "Gestion de l'énergie;Batterie;Système;Énergie;",
    "Keywords[gl]": "Xestión da enerxía;batería;sistema;enerxía;",
    "Keywords[he]": "Power Management; Battery; System; Energy;ניהול חשמל;חשמל; סוללה; מערכת;אנרגיה; בטריה;",
    "Keywords[hi]": "विद्युत प्रबंधन;बैटरी;तंत्र;ऊर्जा;",
    "Keywords[hsb]": "Power Management;Battery;System;Energy;akuw;energija;milina;",
    "Keywords[hu]": "Energiakezelés;Akkumulátor;Rendszer;Energia;",
    "Keywords[ia]": "Gestion de energia;Batteria;Systema; Energia;",
    "Keywords[id]": "Pengelolaan Daya;Baterai;Sistem;Energi;",
    "Keywords[is]": "Orkustjórnun;Rafhlaða;Kerfi;Afl;",
    "Keywords[it]": "Gestione energetica;Batteria;Sistema;Energia;",
    "Keywords[ja]": "電源管理;バッテリー;システム;エネルギー;",
    "Keywords[kk]": "Power Management;Battery;System;Energy;",
    "Keywords[ko]": "Power Management;Battery;System;Energy;전원 관리;전력 관리;배터리;시스템;에너지;",
    "Keywords[lt]": "Energijos valdymas;Baterija;Sistema;Energija;Akumuliatorius;Maitinimo valdymas;",
    "Keywords[ml]": "ഊർജ്ജനിയന്ത്രണം;ബാറ്ററി;സിസ്റ്റം;ഊ‍ർജ്ജം",
    "Keywords[mr]": "वीज व्यवस्थापन; बॅटरी; प्रणाली; ऊर्जा;",
    "Keywords[nb]": "Strømstyring; Batteri; System; Energi;",
    "Keywords[nds]": "Stroompleeg,Batterie,Systeem,Energie",
    "Keywords[nl]": "Energiebeheer;Batterij;Accu;Systeem;Energie;",
    "Keywords[nn]": "straumstyring;batteri;system;energi;",
    "Keywords[pa]": "ਪਾਵਰ ਪਰਬੰਧ;ਬੈਟਰੀ;ਸਿਸਟਮ;ਊਰਜਾ;",
    "Keywords[pl]": "Zarządzanie Energią;Bateria;System;Energia;",
    "Keywords[pt]": "Gestão de Energia;Bateria;Sistema;Energia;",
    "Keywords[pt_BR]": "Gerenciamento de energia;Bateria;Sistema;Energia;",
    "Keywords[ro]": "gestiunea alimentării;acumulator;sistem;energie;",
    "Keywords[ru]": "Power Management;Battery;System;Energy;управление питанием;батарея;система;энергия;энергопотребление;",
    "Keywords[sk]": "Správa napájania;Batéria;Systém;Energia;",
    "Keywords[sl]": "Upravljanje z energijo;Baterija;Sistem;Energija;",
    "Keywords[sr@ijekavian]": "Power Management;Battery;System;Energy;управљање напајањем;батерија; систем;енергија;",
    "Keywords[sr@ijekavianlatin]": "Power Management;Battery;System;Energy;upravljanje napajanjem;baterija; sistem;energija;",
    "Keywords[sr@latin]": "Power Management;Battery;System;Energy;upravljanje napajanjem;baterija; sistem;energija;",
    "Keywords[sr]": "Power Management;Battery;System;Energy;управљање напајањем;батерија; систем;енергија;",
    "Keywords[sv]": "Strömhantering;Batteri;System;Energi;",
    "Keywords[ta]": "Power Management;Battery;System;Energy;ஆற்றல்;மின்கலம்;கணினி;ஆற்றல் மேலாண்மை;",
    "Keywords[tr]": "Güç Yönetimi;Pil;Sistem;Enerji;",
    "Keywords[uk]": "Power Management;Battery;System;Energy;керування живленням;акумулятор;система;енергія;батарея;батарейка;живлення;",
    "Keywords[vi]": "Power Management;Battery;System;Energy;Quản lí nguồn điện;Pin;Hệ thống;Năng lượng;",
    "Keywords[x-test]": "xxPower Managementxx;xxBatteryxx;xxSystemxx;xxEnergyxx;",
    "Keywords[zh_CN]": "电源管理;电池;系统;能源;",
    "Keywords[zh_TW]": "Power Management;Battery;System;Energy;",
    "X-Plasma-API-Minimum-Version": "6.0",
    "X-Plasma-DBusActivationService": "org.kde.Solid.PowerManagement",
    "X-Plasma-NotificationAreaCategory": "Hardware",
    "X-Plasma-Provides": [
        "org.kde.plasma.powermanagement"
    ]
}
